{
    "lien_parente": [
        {
            "id": 1,
            "lien_parente": "Epoux(se) ou partenaire de Pacs",
            "degre_parente": 0,
            "ligne_familiale": 1,
            "abattement": 0,
            "OrdreAffichage": 1
        },
        {
            "id": 2,
            "lien_parente": "Enfant",
            "degre_parente": 1,
            "ligne_familiale": 1,
            "abattement": 100000,
            "OrdreAffichage": 2
        },
        {
            "id": 3,
            "lien_parente": "Père-Mère",
            "degre_parente": 1,
            "ligne_familiale": 1,
            "abattement": 100000,
            "OrdreAffichage": 3
        },
        {
            "id": 4,
            "lien_parente": "Grand-parent",
            "degre_parente": 2,
            "ligne_familiale": 1,
            "abattement": 100000,
            "OrdreAffichage": 4
        },
        {
            "id": 5,
            "lien_parente": "Petit-fils(fille)",
            "degre_parente": 2,
            "ligne_familiale": 1,
            "abattement": 1594,
            "OrdreAffichage": 5
        },
        {
            "id": 6,
            "lien_parente": "Arrière-grand-parent",
            "degre_parente": 3,
            "ligne_familiale": 1,
            "abattement": 100000,
            "OrdreAffichage": 6
        },
        {
            "id": 7,
            "lien_parente": "Arrière-petit-fils(fille)",
            "degre_parente": 3,
            "ligne_familiale": 1,
            "abattement": 1594,
            "OrdreAffichage": 7
        },
        {
            "id": 10,
            "lien_parente": "Frère ou soeur",
            "degre_parente": 2,
            "ligne_familiale": 0,
            "abattement": 15932,
            "OrdreAffichage": 8
        },
        {
            "id": 11,
            "lien_parente": "Neveu ou nièce",
            "degre_parente": 3,
            "ligne_familiale": 0,
            "abattement": 7967,
            "OrdreAffichage": 9
        },
        {
            "id": 12,
            "lien_parente": "Cousin germain",
            "degre_parente": 4,
            "ligne_familiale": 0,
            "abattement": 1594,
            "OrdreAffichage": 10
        },
        {
            "id": 14,
            "lien_parente": "Pupille de l'Etat ou de la Nation héritier ou légataire",
            "degre_parente": 1,
            "ligne_familiale": 1,
            "abattement": 100000,
            "OrdreAffichage": 12
        },
        {
            "id": 15,
            "lien_parente": "Autre héritier ou légataire",
            "degre_parente": 6,
            "ligne_familiale": 0,
            "abattement": 1594,
            "OrdreAffichage": 99
        },
        {
            "id": 16,
            "lien_parente": "Pupille de l'Etat ou de la Nation héritier ou légataire 2 non",
            "degre_parente": 6,
            "ligne_familiale": 0,
            "abattement": 1594,
            "OrdreAffichage": 13
        },
        {
            "id": 17,
            "lien_parente": "Oncle ou tante",
            "degre_parente": 3,
            "ligne_familiale": 0,
            "abattement": 1594,
            "OrdreAffichage": 11
        }
    ],
    "bareme": [
        {
            "id": 1,
            "ligne_familiale": 1,
            "debut_degre": 0,
            "fin_degre": 0,
            "debut_tranche": 0,
            "fin_tranche": 0,
            "bareme": 0
        },
        {
            "id": 2,
            "ligne_familiale": 1,
            "debut_degre": 1,
            "fin_degre": 5,
            "debut_tranche": 0,
            "fin_tranche": 8072,
            "bareme": 5
        },
        {
            "id": 3,
            "ligne_familiale": 1,
            "debut_degre": 1,
            "fin_degre": 5,
            "debut_tranche": 8072,
            "fin_tranche": 12109,
            "bareme": 10
        },
        {
            "id": 4,
            "ligne_familiale": 1,
            "debut_degre": 1,
            "fin_degre": 5,
            "debut_tranche": 12109,
            "fin_tranche": 15932,
            "bareme": 15
        },
        {
            "id": 5,
            "ligne_familiale": 1,
            "debut_degre": 1,
            "fin_degre": 5,
            "debut_tranche": 15932,
            "fin_tranche": 552324,
            "bareme": 20
        },
        {
            "id": 6,
            "ligne_familiale": 1,
            "debut_degre": 1,
            "fin_degre": 5,
            "debut_tranche": 552324,
            "fin_tranche": 902838,
            "bareme": 30
        },
        {
            "id": 7,
            "ligne_familiale": 1,
            "debut_degre": 1,
            "fin_degre": 5,
            "debut_tranche": 902838,
            "fin_tranche": 1805677,
            "bareme": 40
        },
        {
            "id": 8,
            "ligne_familiale": 1,
            "debut_degre": 1,
            "fin_degre": 5,
            "debut_tranche": 1805677,
            "fin_tranche": 0,
            "bareme": 45
        },
        {
            "id": 9,
            "ligne_familiale": 0,
            "debut_degre": 2,
            "fin_degre": 2,
            "debut_tranche": 0,
            "fin_tranche": 24430,
            "bareme": 35
        },
        {
            "id": 10,
            "ligne_familiale": 0,
            "debut_degre": 2,
            "fin_degre": 2,
            "debut_tranche": 24430,
            "fin_tranche": 0,
            "bareme": 45
        },
        {
            "id": 11,
            "ligne_familiale": 0,
            "debut_degre": 3,
            "fin_degre": 4,
            "debut_tranche": 0,
            "fin_tranche": 0,
            "bareme": 55
        },
        {
            "id": 12,
            "ligne_familiale": 0,
            "debut_degre": 5,
            "fin_degre": 5,
            "debut_tranche": 0,
            "fin_tranche": 0,
            "bareme": 60
        },
        {
            "id": 13,
            "ligne_familiale": 0,
            "debut_degre": 6,
            "fin_degre": 6,
            "debut_tranche": 0,
            "fin_tranche": 0,
            "bareme": 60
        }
    ],
    "bareme2": [
        {
            "id": 1,
            "ligne_familiale": 1,
            "debut_degre": 0,
            "fin_degre": 0,
            "tranche": 1,
            "part_taxable": 0,
            "bareme": 0
        },
        {
            "id": 2,
            "ligne_familiale": 1,
            "debut_degre": 1,
            "fin_degre": 5,
            "tranche": 1,
            "part_taxable": 8072,
            "bareme": 5
        },
        {
            "id": 3,
            "ligne_familiale": 1,
            "debut_degre": 1,
            "fin_degre": 5,
            "tranche": 2,
            "part_taxable": 4037,
            "bareme": 10
        },
        {
            "id": 4,
            "ligne_familiale": 1,
            "debut_degre": 1,
            "fin_degre": 5,
            "tranche": 3,
            "part_taxable": 3823,
            "bareme": 15
        },
        {
            "id": 5,
            "ligne_familiale": 1,
            "debut_degre": 1,
            "fin_degre": 5,
            "tranche": 4,
            "part_taxable": 536392,
            "bareme": 20
        },
        {
            "id": 6,
            "ligne_familiale": 1,
            "debut_degre": 1,
            "fin_degre": 5,
            "tranche": 5,
            "part_taxable": 350514,
            "bareme": 30
        },
        {
            "id": 7,
            "ligne_familiale": 1,
            "debut_degre": 1,
            "fin_degre": 5,
            "tranche": 6,
            "part_taxable": 902839,
            "bareme": 40
        },
        {
            "id": 8,
            "ligne_familiale": 1,
            "debut_degre": 1,
            "fin_degre": 5,
            "tranche": 7,
            "part_taxable": 99999999,
            "bareme": 45
        },
        {
            "id": 9,
            "ligne_familiale": 0,
            "debut_degre": 2,
            "fin_degre": 2,
            "tranche": 1,
            "part_taxable": 24430,
            "bareme": 35
        },
        {
            "id": 10,
            "ligne_familiale": 0,
            "debut_degre": 2,
            "fin_degre": 2,
            "tranche": 2,
            "part_taxable": 99999999,
            "bareme": 45
        },
        {
            "id": 11,
            "ligne_familiale": 0,
            "debut_degre": 3,
            "fin_degre": 4,
            "tranche": 1,
            "part_taxable": 99999999,
            "bareme": 55
        },
        {
            "id": 12,
            "ligne_familiale": 0,
            "debut_degre": 5,
            "fin_degre": 5,
            "tranche": 1,
            "part_taxable": 99999999,
            "bareme": 60
        },
        {
            "id": 13,
            "ligne_familiale": 0,
            "debut_degre": 6,
            "fin_degre": 6,
            "tranche": 1,
            "part_taxable": 99999999,
            "bareme": 60
        }
    ],
    "abattementsDonationParente": [
        {
            "id": 1,
            "lienParente": "Epoux(se) ou partenaire de Pacs",
            "degreParente": 0,
            "ligneFamiliale": 1,
            "abattement": 80724
        },
        {
            "id": 2,
            "lienParente": "Concubin",
            "degreParente": 3,
            "ligneFamiliale": 0,
            "abattement": 0
        },
        {
            "id": 3,
            "lienParente": "Enfant",
            "degreParente": 1,
            "ligneFamiliale": 1,
            "abattement": 100000
        },
        {
            "id": 4,
            "lienParente": "Pere-Mere",
            "degreParente": 1,
            "ligneFamiliale": 1,
            "abattement": 100000
        },
        {
            "id": 5,
            "lienParente": "Grand-parent",
            "degreParente": 2,
            "ligneFamiliale": 1,
            "abattement": 100000
        },
        {
            "id": 6,
            "lienParente": "Petit-fils (fille)",
            "degreParente": 2,
            "ligneFamiliale": 1,
            "abattement": 31865
        },
        {
            "id": 7,
            "lienParente": "Arriere-grand-parent",
            "degreParente": 3,
            "ligneFamiliale": 1,
            "abattement": 100000
        },
        {
            "id": 8,
            "lienParente": "Arriere-petit-fils(fille)",
            "degreParente": 3,
            "ligneFamiliale": 1,
            "abattement": 5310
        },
        {
            "id": 9,
            "lienParente": "Frere ou soeur",
            "degreParente": 2,
            "ligneFamiliale": 0,
            "abattement": 15932
        },
        {
            "id": 10,
            "lienParente": "Neveu ou niece",
            "degreParente": 3,
            "ligneFamiliale": 0,
            "abattement": 7967
        },
        {
            "id": 11,
            "lienParente": "Tante ou oncle",
            "degreParente": 3,
            "ligneFamiliale": 0,
            "abattement": 7967
        },
        {
            "id": 12,
            "lienParente": "Cousin germain",
            "degreParente": 3,
            "ligneFamiliale": 0,
            "abattement": 0
        },
        {
            "id": 13,
            "lienParente": "Pupille de l'Etat ou de la Nation heritier ou legataire",
            "degreParente": 3,
            "ligneFamiliale": 0,
            "abattement": 0
        },
        {
            "id": 14,
            "lienParente": "Autre heritier ou legataire",
            "degreParente": 3,
            "ligneFamiliale": 0,
            "abattement": 0
        }
    ]
}