{
    "$schema": "http:\/\/json-schema.org\/draft-04\/schema#",
    "type": "object",
    "title": "Infraction_donnees",
    "description": "Infractions",
    "databaseName": "Infraction_donnees.db",
    "databaseLabel": "Infractions",
    "databaseDatasimulator": "",
    "databaseDatanextchange": "",
    "databaseDatauserchange": "",
    "properties": {
        "categorie": {
            "type": "array",
            "title": "categories_infraction",
            "description": "",
            "items": {
                "type": "object",
                "properties": {
                    "id": {
                        "type": "integer",
                        "title": "id [primarykey:1, autoincrement:3, type:integer]",
                        "description": "Identifiant interne"
                    },
                    "Categorie_infraction": {
                        "type": "string",
                        "title": "Categorie_infraction [type:text]",
                        "description": ""
                    }
                },
                "required": [
                    "id"
                ]
            }
        },
        "detail_infraction": {
            "type": "array",
            "title": "detail_infraction",
            "description": "",
            "items": {
                "type": "object",
                "properties": {
                    "id": {
                        "type": "integer",
                        "title": "id [primarykey:1, autoincrement:76, type:integer]",
                        "description": "Identifiant interne"
                    },
                    "nom_infraction": {
                        "type": "string",
                        "title": "Nom_Infraction [type:text]",
                        "description": ""
                    },
                    "cat_infraction": {
                        "type": "string",
                        "title": "cat_infraction [type:text]",
                        "description": ""
                    },
                    "points": {
                        "type": "string",
                        "title": "points [type:text]",
                        "description": ""
                    },
                    "Contravention": {
                        "type": "string",
                        "title": "Contravention [type:text]",
                        "description": ""
                    },
                    "Delit": {
                        "type": "string",
                        "title": "Delit [type:text]",
                        "description": ""
                    },
                    "TIG": {
                        "type": "string",
                        "title": "TIG [type:text]",
                        "description": ""
                    },
                    "Suspension": {
                        "type": "string",
                        "title": "suspension [type:text]",
                        "description": ""
                    },
                    "Interdiction": {
                        "type": "string",
                        "title": "Interdiction [type:text]",
                        "description": ""
                    },
                    "Annulation": {
                        "type": "string",
                        "title": "Annulation [type:text]",
                        "description": ""
                    },
                    "Prison": {
                        "type": "string",
                        "title": "Prison [type:text]",
                        "description": ""
                    },
                    "Vehicule": {
                        "type": "string",
                        "title": "Vehicule [type:text]",
                        "description": ""
                    },
                    "Stage": {
                        "type": "string",
                        "title": "Stage [type:text]",
                        "description": ""
                    },
                    "Source": {
                        "type": "string",
                        "title": "Source [type:text]",
                        "description": ""
                    },
                    "Code_legi": {
                        "type": "string",
                        "title": "Code_legi [type:text]",
                        "description": ""
                    },
                    "Code_Url": {
                        "type": "string",
                        "title": "Code_Url [type:textarea]",
                        "description": ""
                    },
                    "Probatoire": {
                        "type": "string",
                        "title": "Probatoire [type:text]",
                        "description": ""
                    },
                    "JoursAmendes": {
                        "type": "string",
                        "title": "Jours Amendes [type:text]",
                        "description": ""
                    }
                },
                "required": [
                    "id"
                ]
            }
        },
        "velo": {
            "type": "array",
            "title": "infractions_velo",
            "description": "",
            "items": {
                "type": "object",
                "properties": {
                    "id": {
                        "type": "integer",
                        "title": "id [primarykey:1, autoincrement:46, type:integer]",
                        "description": "Identifiant interne"
                    },
                    "nom_infraction": {
                        "type": "string",
                        "title": "Nom_Infraction [type:text]",
                        "description": ""
                    },
                    "cat_infraction": {
                        "type": "string",
                        "title": "cat_infraction [type:text]",
                        "description": ""
                    },
                    "points": {
                        "type": "string",
                        "title": "points [type:text]",
                        "description": ""
                    },
                    "Contravention": {
                        "type": "string",
                        "title": "Contravention [type:text]",
                        "description": ""
                    },
                    "Delit": {
                        "type": "string",
                        "title": "Delit [type:text]",
                        "description": ""
                    },
                    "TIG": {
                        "type": "string",
                        "title": "TIG [type:text]",
                        "description": ""
                    },
                    "Suspension": {
                        "type": "string",
                        "title": "suspension [type:text]",
                        "description": ""
                    },
                    "Interdiction": {
                        "type": "string",
                        "title": "Interdiction [type:text]",
                        "description": ""
                    },
                    "Annulation": {
                        "type": "string",
                        "title": "Annulation [type:text]",
                        "description": ""
                    },
                    "Prison": {
                        "type": "string",
                        "title": "Prison [type:text]",
                        "description": ""
                    },
                    "Vehicule": {
                        "type": "string",
                        "title": "Vehicule [type:text]",
                        "description": ""
                    },
                    "Stage": {
                        "type": "string",
                        "title": "Stage [type:text]",
                        "description": ""
                    },
                    "Source": {
                        "type": "string",
                        "title": "Source [type:text]",
                        "description": ""
                    },
                    "Code_legi": {
                        "type": "string",
                        "title": "Code_legi [type:text]",
                        "description": ""
                    },
                    "Code_Url": {
                        "type": "string",
                        "title": "Code_Url [type:textarea]",
                        "description": ""
                    },
                    "Probatoire": {
                        "type": "string",
                        "title": "Probatoire [type:text]",
                        "description": ""
                    },
                    "JoursAmendes": {
                        "type": "string",
                        "title": "Jours Amendes [type:text]",
                        "description": ""
                    }
                },
                "required": [
                    "id"
                ]
            }
        }
    },
    "required": [
        "categorie",
        "detail_infraction",
        "velo"
    ]
}