{
    "BaremeUsufruit": [
        {
            "id": 1,
            "DebutTranche": 0,
            "FinTranche": 20,
            "PourcentUsufruit": 90,
            "Pourcentnuepropriete": 10
        },
        {
            "id": 2,
            "DebutTranche": 21,
            "FinTranche": 30,
            "PourcentUsufruit": 80,
            "Pourcentnuepropriete": 20
        },
        {
            "id": 3,
            "DebutTranche": 31,
            "FinTranche": 40,
            "PourcentUsufruit": 70,
            "Pourcentnuepropriete": 30
        },
        {
            "id": 4,
            "DebutTranche": 41,
            "FinTranche": 50,
            "PourcentUsufruit": 60,
            "Pourcentnuepropriete": 40
        },
        {
            "id": 5,
            "DebutTranche": 51,
            "FinTranche": 60,
            "PourcentUsufruit": 50,
            "Pourcentnuepropriete": 50
        },
        {
            "id": 6,
            "DebutTranche": 61,
            "FinTranche": 70,
            "PourcentUsufruit": 40,
            "Pourcentnuepropriete": 60
        },
        {
            "id": 7,
            "DebutTranche": 71,
            "FinTranche": 80,
            "PourcentUsufruit": 30,
            "Pourcentnuepropriete": 70
        },
        {
            "id": 8,
            "DebutTranche": 81,
            "FinTranche": 90,
            "PourcentUsufruit": 20,
            "Pourcentnuepropriete": 80
        },
        {
            "id": 9,
            "DebutTranche": 91,
            "FinTranche": 150,
            "PourcentUsufruit": 10,
            "Pourcentnuepropriete": 90
        }
    ]
}