{
    "RSASocle": [
        {
            "id": 1,
            "montant": 460.09,
            "debut": "2010-01-01",
            "fin": "2010-12-31"
        },
        {
            "id": 2,
            "montant": 466.99,
            "debut": "2011-01-01",
            "fin": "2011-12-31"
        },
        {
            "id": 3,
            "montant": 474.93,
            "debut": "2012-01-01",
            "fin": "2012-12-31"
        },
        {
            "id": 4,
            "montant": 483.24,
            "debut": "2013-01-01",
            "fin": "2013-08-31"
        },
        {
            "id": 5,
            "montant": 492.9,
            "debut": "2013-09-01",
            "fin": "2013-12-31"
        },
        {
            "id": 6,
            "montant": 499.3,
            "debut": "2014-01-01",
            "fin": "2014-08-31"
        },
        {
            "id": 7,
            "montant": 509.3,
            "debut": "2014-09-01",
            "fin": "2014-12-31"
        },
        {
            "id": 8,
            "montant": 513.88,
            "debut": "2015-01-01",
            "fin": "2015-08-31"
        },
        {
            "id": 9,
            "montant": 524.16,
            "debut": "2015-09-01",
            "fin": "2016-03-31"
        },
        {
            "id": 10,
            "montant": 524.66,
            "debut": "2016-04-01",
            "fin": "2016-08-31"
        },
        {
            "id": 11,
            "montant": 535.17,
            "debut": "2016-09-01",
            "fin": "2017-03-31"
        },
        {
            "id": 12,
            "montant": 536.78,
            "debut": "2017-04-01",
            "fin": "2017-08-31"
        },
        {
            "id": 13,
            "montant": 545.48,
            "debut": "2017-09-01",
            "fin": "2018-03-31"
        },
        {
            "id": 14,
            "montant": 550.93,
            "debut": "2018-04-01",
            "fin": "2018-08-31"
        },
        {
            "id": 15,
            "montant": 550.93,
            "debut": "2018-09-01",
            "fin": "2019-03-31"
        }
    ],
    "baremeSaisie": [
        {
            "id": 1,
            "fractionSaisissableMult": 1,
            "fractionSaisissableDiv": 20,
            "remuneration": 3730
        },
        {
            "id": 2,
            "fractionSaisissableMult": 1,
            "fractionSaisissableDiv": 10,
            "remuneration": 7280
        },
        {
            "id": 3,
            "fractionSaisissableMult": 1,
            "fractionSaisissableDiv": 5,
            "remuneration": 10850
        },
        {
            "id": 4,
            "fractionSaisissableMult": 1,
            "fractionSaisissableDiv": 4,
            "remuneration": 14410
        },
        {
            "id": 5,
            "fractionSaisissableMult": 1,
            "fractionSaisissableDiv": 3,
            "remuneration": 17970
        },
        {
            "id": 6,
            "fractionSaisissableMult": 2,
            "fractionSaisissableDiv": 3,
            "remuneration": 21590
        }
    ],
    "correctifPersonneACharge": [
        {
            "id": 1,
            "montant": 1270,
            "debut": "2008-05-01",
            "fin": "2008-12-31"
        },
        {
            "id": 2,
            "montant": 1310,
            "debut": "2009-01-01",
            "fin": "2009-06-19"
        },
        {
            "id": 3,
            "montant": 1310,
            "debut": "2009-06-20",
            "fin": "2010-31-12"
        },
        {
            "id": 4,
            "montant": 1330,
            "debut": "2011-01-01",
            "fin": "2011-12-31"
        },
        {
            "id": 5,
            "montant": 1360,
            "debut": "2012-01-01",
            "fin": "2013-01-31"
        },
        {
            "id": 6,
            "montant": 1390,
            "debut": "2013-02-01",
            "fin": "2013-12-31"
        },
        {
            "id": 7,
            "montant": 1400,
            "debut": "2014-01-01",
            "fin": "2014-12-31"
        },
        {
            "id": 8,
            "montant": 1410,
            "debut": "2015-01-01",
            "fin": "2016-03-31"
        },
        {
            "id": 9,
            "montant": 1420,
            "debut": "2016-04-01"
        }
    ]
}