{
    "Calendrier": [
        {
            "id": 210,
            "Description": "Vacances de Septembre",
            "DateDebut": "samedi 15 septembre 2018",
            "DateFin": "lundi 24 septembre 2018",
            "Zone": "Polynésie",
            "annee_scolaire": "2018-2019",
            "Debut": "2018-09-15",
            "Fin": "2018-09-24"
        },
        {
            "id": 211,
            "Description": "Vacances de la Toussaint",
            "DateDebut": "samedi 6 octobre 2018",
            "DateFin": "lundi 22 octobre 2018",
            "Zone": "Mayotte",
            "annee_scolaire": "2018-2019",
            "Debut": "2018-10-06",
            "Fin": "2018-10-22"
        },
        {
            "id": 212,
            "Description": "Vacances 4ème période",
            "DateDebut": "samedi 13 octobre 2018",
            "DateFin": "dimanche 28 octobre 2018",
            "Zone": "Nouvelle Calédonie",
            "annee_scolaire": "2018-2019",
            "Debut": "2018-10-13",
            "Fin": "2018-10-28"
        },
        {
            "id": 213,
            "Description": "Vacances après 1ère période",
            "DateDebut": "samedi 13 octobre 2018",
            "DateFin": "lundi 29 octobre 2018",
            "Zone": "La Réunion",
            "annee_scolaire": "2018-2019",
            "Debut": "2018-10-13",
            "Fin": "2018-10-29"
        },
        {
            "id": 214,
            "Description": "Vacances 4ème période",
            "DateDebut": "samedi 13 octobre 2018",
            "DateFin": "dimanche 28 octobre 2018",
            "Zone": "Wallis et Futuna",
            "annee_scolaire": "2018-2019",
            "Debut": "2018-10-13",
            "Fin": "2018-10-28"
        },
        {
            "id": 215,
            "Description": "Vacances de la Toussaint",
            "DateDebut": "samedi 20 octobre 2018",
            "DateFin": "lundi 5 novembre 2018",
            "Zone": "Zone B",
            "annee_scolaire": "2018-2019",
            "Debut": "2018-10-20",
            "Fin": "2018-11-05"
        },
        {
            "id": 216,
            "Description": "Vacances de la Toussaint",
            "DateDebut": "samedi 20 octobre 2018",
            "DateFin": "lundi 5 novembre 2018",
            "Zone": "Zone A",
            "annee_scolaire": "2018-2019",
            "Debut": "2018-10-20",
            "Fin": "2018-11-05"
        },
        {
            "id": 217,
            "Description": "Vacances de la Toussaint",
            "DateDebut": "samedi 20 octobre 2018",
            "DateFin": "lundi 5 novembre 2018",
            "Zone": "Zone C",
            "annee_scolaire": "2018-2019",
            "Debut": "2018-10-20",
            "Fin": "2018-11-05"
        },
        {
            "id": 218,
            "Description": "Vacances de la Toussaint",
            "DateDebut": "samedi 20 octobre 2018",
            "DateFin": "lundi 5 novembre 2018",
            "Zone": "Guadeloupe",
            "annee_scolaire": "2018-2019",
            "Debut": "2018-10-20",
            "Fin": "2018-11-05"
        },
        {
            "id": 219,
            "Description": "Vacances de la Toussaint",
            "DateDebut": "samedi 20 octobre 2018",
            "DateFin": "lundi 5 novembre 2018",
            "Zone": "Guyane",
            "annee_scolaire": "2018-2019",
            "Debut": "2018-10-20",
            "Fin": "2018-11-05"
        },
        {
            "id": 220,
            "Description": "Vacances de la Toussaint",
            "DateDebut": "lundi 22 octobre 2018",
            "DateFin": "lundi 5 novembre 2018",
            "Zone": "Martinique",
            "annee_scolaire": "2018-2019",
            "Debut": "2018-10-22",
            "Fin": "2018-11-05"
        },
        {
            "id": 221,
            "Description": "Vacances de la Toussaint",
            "DateDebut": "mercredi 24 octobre 2018",
            "DateFin": "lundi 5 novembre 2018",
            "Zone": "Corse",
            "annee_scolaire": "2018-2019",
            "Debut": "2018-10-24",
            "Fin": "2018-11-05"
        },
        {
            "id": 222,
            "Description": "Vacances de la Toussaint",
            "DateDebut": "vendredi 26 octobre 2018",
            "DateFin": "lundi 5 novembre 2018",
            "Zone": "Saint Pierre et Miquelon",
            "annee_scolaire": "2018-2019",
            "Debut": "2018-10-26",
            "Fin": "2018-11-05"
        },
        {
            "id": 223,
            "Description": "Vacances de Novembre",
            "DateDebut": "samedi 27 octobre 2018",
            "DateFin": "lundi 12 novembre 2018",
            "Zone": "Polynésie",
            "annee_scolaire": "2018-2019",
            "Debut": "2018-10-27",
            "Fin": "2018-11-12"
        },
        {
            "id": 224,
            "Description": "Vacances de Noël",
            "DateDebut": "samedi 8 décembre 2018",
            "DateFin": "lundi 7 janvier 2019",
            "Zone": "Mayotte",
            "annee_scolaire": "2018-2019",
            "Debut": "2018-12-08",
            "Fin": "2019-01-07"
        },
        {
            "id": 225,
            "Description": "Vacances d'Été",
            "DateDebut": "samedi 15 décembre 2018",
            "DateFin": "lundi 18 février 2019",
            "Zone": "Nouvelle Calédonie",
            "annee_scolaire": "2018-2019",
            "Debut": "2018-12-15",
            "Fin": "2019-02-18"
        },
        {
            "id": 226,
            "Description": "Vacances de Noël",
            "DateDebut": "samedi 15 décembre 2018",
            "DateFin": "lundi 14 janvier 2019",
            "Zone": "Polynésie",
            "annee_scolaire": "2018-2019",
            "Debut": "2018-12-15",
            "Fin": "2019-01-14"
        },
        {
            "id": 227,
            "Description": "Vacances d'Été",
            "DateDebut": "samedi 15 décembre 2018",
            "DateFin": "Date non fixée à ce jour",
            "Zone": "Wallis et Futuna",
            "annee_scolaire": "2018-2019",
            "Debut": "2018-12-15"
        },
        {
            "id": 228,
            "Description": "Vacances de Février",
            "DateDebut": "vendredi 21 décembre 2018",
            "DateFin": "lundi 7 janvier 2019",
            "Zone": "Saint Pierre et Miquelon",
            "annee_scolaire": "2018-2019",
            "Debut": "2018-12-21",
            "Fin": "2019-01-07"
        },
        {
            "id": 229,
            "Description": "Vacances de Noël",
            "DateDebut": "samedi 22 décembre 2018",
            "DateFin": "lundi 7 janvier 2019",
            "Zone": "Zone B",
            "annee_scolaire": "2018-2019",
            "Debut": "2018-12-22",
            "Fin": "2019-01-07"
        },
        {
            "id": 230,
            "Description": "Vacances de Noël",
            "DateDebut": "samedi 22 décembre 2018",
            "DateFin": "lundi 7 janvier 2019",
            "Zone": "Guadeloupe",
            "annee_scolaire": "2018-2019",
            "Debut": "2018-12-22",
            "Fin": "2019-01-07"
        },
        {
            "id": 231,
            "Description": "Vacances de Noël",
            "DateDebut": "samedi 22 décembre 2018",
            "DateFin": "lundi 7 janvier 2019",
            "Zone": "Zone C",
            "annee_scolaire": "2018-2019",
            "Debut": "2018-12-22",
            "Fin": "2019-01-07"
        },
        {
            "id": 232,
            "Description": "Vacances de Noël",
            "DateDebut": "samedi 22 décembre 2018",
            "DateFin": "lundi 7 janvier 2019",
            "Zone": "Zone A",
            "annee_scolaire": "2018-2019",
            "Debut": "2018-12-22",
            "Fin": "2019-01-07"
        },
        {
            "id": 233,
            "Description": "Vacances de Noël",
            "DateDebut": "samedi 22 décembre 2018",
            "DateFin": "lundi 7 janvier 2019",
            "Zone": "Guyane",
            "annee_scolaire": "2018-2019",
            "Debut": "2018-12-22",
            "Fin": "2019-01-07"
        },
        {
            "id": 234,
            "Description": "Vacances de Noël",
            "DateDebut": "samedi 22 décembre 2018",
            "DateFin": "lundi 7 janvier 2019",
            "Zone": "Martinique",
            "annee_scolaire": "2018-2019",
            "Debut": "2018-12-22",
            "Fin": "2019-01-07"
        },
        {
            "id": 235,
            "Description": "Vacances d'Été austral",
            "DateDebut": "samedi 22 décembre 2018",
            "DateFin": "lundi 28 janvier 2019",
            "Zone": "La Réunion",
            "annee_scolaire": "2018-2019",
            "Debut": "2018-12-22",
            "Fin": "2019-01-28"
        },
        {
            "id": 236,
            "Description": "Vacances de Noël",
            "DateDebut": "lundi 24 décembre 2018",
            "DateFin": "lundi 7 janvier 2019",
            "Zone": "Corse",
            "annee_scolaire": "2018-2019",
            "Debut": "2018-12-24",
            "Fin": "2019-01-07"
        },
        {
            "id": 237,
            "Description": "Vacances d'Hiver",
            "DateDebut": "samedi 9 février 2019",
            "DateFin": "lundi 25 février 2019",
            "Zone": "Zone B",
            "annee_scolaire": "2018-2019",
            "Debut": "2019-02-09",
            "Fin": "2019-02-25"
        },
        {
            "id": 238,
            "Description": "Vacances d'Hiver",
            "DateDebut": "vendredi 15 février 2019",
            "DateFin": "lundi 4 mars 2019",
            "Zone": "Saint Pierre et Miquelon",
            "annee_scolaire": "2018-2019",
            "Debut": "2019-02-15",
            "Fin": "2019-03-04"
        },
        {
            "id": 239,
            "Description": "Vacances d'Hiver",
            "DateDebut": "samedi 16 février 2019",
            "DateFin": "lundi 4 mars 2019",
            "Zone": "Zone A",
            "annee_scolaire": "2018-2019",
            "Debut": "2019-02-16",
            "Fin": "2019-03-04"
        },
        {
            "id": 240,
            "Description": "Vacances de Février",
            "DateDebut": "samedi 16 février 2019",
            "DateFin": "lundi 25 février 2019",
            "Zone": "Polynésie",
            "annee_scolaire": "2018-2019",
            "Debut": "2019-02-16",
            "Fin": "2019-02-25"
        },
        {
            "id": 241,
            "Description": "Vacances d'Hiver",
            "DateDebut": "samedi 23 février 2019",
            "DateFin": "lundi 11 mars 2019",
            "Zone": "Zone C",
            "annee_scolaire": "2018-2019",
            "Debut": "2019-02-23",
            "Fin": "2019-03-11"
        },
        {
            "id": 242,
            "Description": "Vacances du Carnaval",
            "DateDebut": "samedi 23 février 2019",
            "DateFin": "lundi 11 mars 2019",
            "Zone": "Mayotte",
            "annee_scolaire": "2018-2019",
            "Debut": "2019-02-23",
            "Fin": "2019-03-11"
        },
        {
            "id": 243,
            "Description": "Vacances du Carnaval",
            "DateDebut": "samedi 23 février 2019",
            "DateFin": "lundi 11 mars 2019",
            "Zone": "Guyane",
            "annee_scolaire": "2018-2019",
            "Debut": "2019-02-23",
            "Fin": "2019-03-11"
        },
        {
            "id": 244,
            "Description": "Vacances du Carnaval",
            "DateDebut": "samedi 23 février 2019",
            "DateFin": "lundi 11 mars 2019",
            "Zone": "Martinique",
            "annee_scolaire": "2018-2019",
            "Debut": "2019-02-23",
            "Fin": "2019-03-11"
        },
        {
            "id": 245,
            "Description": "Vacances de Carnaval",
            "DateDebut": "samedi 23 février 2019",
            "DateFin": "lundi 11 mars 2019",
            "Zone": "Guadeloupe",
            "annee_scolaire": "2018-2019",
            "Debut": "2019-02-23",
            "Fin": "2019-03-11"
        },
        {
            "id": 246,
            "Description": "Vacances d'Hiver",
            "DateDebut": "lundi 25 février 2019",
            "DateFin": "lundi 11 mars 2019",
            "Zone": "Corse",
            "annee_scolaire": "2018-2019",
            "Debut": "2019-02-25",
            "Fin": "2019-03-11"
        },
        {
            "id": 247,
            "Description": "Vacances après 2ème période",
            "DateDebut": "samedi 9 mars 2019",
            "DateFin": "lundi 25 mars 2019",
            "Zone": "La Réunion",
            "annee_scolaire": "2018-2019",
            "Debut": "2019-03-09",
            "Fin": "2019-03-25"
        },
        {
            "id": 248,
            "Description": "Vacances de Printemps",
            "DateDebut": "samedi 6 avril 2019",
            "DateFin": "mardi 23 avril 2019",
            "Zone": "Zone B",
            "annee_scolaire": "2018-2019",
            "Debut": "2019-04-06",
            "Fin": "2019-04-23"
        },
        {
            "id": 249,
            "Description": "Vacances 1ère période",
            "DateDebut": "samedi 6 avril 2019",
            "DateFin": "dimanche 14 avril 2019",
            "Zone": "Nouvelle Calédonie",
            "annee_scolaire": "2018-2019",
            "Debut": "2019-04-06",
            "Fin": "2019-04-14"
        },
        {
            "id": 250,
            "Description": "Vacances de Pâques",
            "DateDebut": "samedi 6 avril 2019",
            "DateFin": "lundi 22 avril 2019",
            "Zone": "Polynésie",
            "annee_scolaire": "2018-2019",
            "Debut": "2019-04-06",
            "Fin": "2019-04-22"
        },
        {
            "id": 251,
            "Description": "Vacances de Printemps",
            "DateDebut": "samedi 13 avril 2019",
            "DateFin": "lundi 29 avril 2019",
            "Zone": "Zone A",
            "annee_scolaire": "2018-2019",
            "Debut": "2019-04-13",
            "Fin": "2019-04-29"
        },
        {
            "id": 252,
            "Description": "Vacances de Pâques",
            "DateDebut": "samedi 13 avril 2019",
            "DateFin": "lundi 29 avril 2019",
            "Zone": "Martinique",
            "annee_scolaire": "2018-2019",
            "Debut": "2019-04-13",
            "Fin": "2019-04-29"
        },
        {
            "id": 253,
            "Description": "Vacances de Pâques",
            "DateDebut": "jeudi 18 avril 2019",
            "DateFin": "lundi 6 mai 2019",
            "Zone": "Guyane",
            "annee_scolaire": "2018-2019",
            "Debut": "2019-04-18",
            "Fin": "2019-05-06"
        },
        {
            "id": 254,
            "Description": "Vacances de Pâques",
            "DateDebut": "jeudi 18 avril 2019",
            "DateFin": "jeudi 2 mai 2019",
            "Zone": "Guadeloupe",
            "annee_scolaire": "2018-2019",
            "Debut": "2019-04-18",
            "Fin": "2019-05-02"
        },
        {
            "id": 255,
            "Description": "Vacances de Printemps",
            "DateDebut": "vendredi 19 avril 2019",
            "DateFin": "lundi 6 mai 2019",
            "Zone": "Saint Pierre et Miquelon",
            "annee_scolaire": "2018-2019",
            "Debut": "2019-04-19",
            "Fin": "2019-05-06"
        },
        {
            "id": 256,
            "Description": "Vacances de Printemps",
            "DateDebut": "samedi 20 avril 2019",
            "DateFin": "lundi 6 mai 2019",
            "Zone": "Zone C",
            "annee_scolaire": "2018-2019",
            "Debut": "2019-04-20",
            "Fin": "2019-05-06"
        },
        {
            "id": 257,
            "Description": "Vacances de Printemps",
            "DateDebut": "lundi 22 avril 2019",
            "DateFin": "lundi 6 mai 2019",
            "Zone": "Corse",
            "annee_scolaire": "2018-2019",
            "Debut": "2019-04-22",
            "Fin": "2019-05-06"
        },
        {
            "id": 258,
            "Description": "Vacances de Pâques",
            "DateDebut": "vendredi 26 avril 2019",
            "DateFin": "lundi 6 mai 2019",
            "Zone": "Mayotte",
            "annee_scolaire": "2018-2019",
            "Debut": "2019-04-26",
            "Fin": "2019-05-06"
        },
        {
            "id": 259,
            "Description": "Vacances après 4ème période",
            "DateDebut": "mardi 7 mai 2019",
            "DateFin": "lundi 20 mai 2019",
            "Zone": "La Réunion",
            "annee_scolaire": "2018-2019",
            "Debut": "2019-05-07",
            "Fin": "2019-05-20"
        },
        {
            "id": 260,
            "Description": "Vacances de Mai",
            "DateDebut": "samedi 25 mai 2019",
            "DateFin": "lundi 3 juin 2019",
            "Zone": "Polynésie",
            "annee_scolaire": "2018-2019",
            "Debut": "2019-05-25",
            "Fin": "2019-06-03"
        },
        {
            "id": 261,
            "Description": "Pont de l’Ascension",
            "DateDebut": "mercredi 29 mai 2019",
            "DateFin": "lundi 3 juin 2019",
            "Zone": "Zone A",
            "annee_scolaire": "2018-2019",
            "Debut": "2019-05-29",
            "Fin": "2019-06-03"
        },
        {
            "id": 262,
            "Description": "Pont de l’Ascension",
            "DateDebut": "mercredi 29 mai 2019",
            "DateFin": "lundi 3 juin 2019",
            "Zone": "Zone B",
            "annee_scolaire": "2018-2019",
            "Debut": "2019-05-29",
            "Fin": "2019-06-03"
        },
        {
            "id": 263,
            "Description": "Pont de l’Ascension",
            "DateDebut": "mercredi 29 mai 2019",
            "DateFin": "lundi 3 juin 2019",
            "Zone": "Zone C",
            "annee_scolaire": "2018-2019",
            "Debut": "2019-05-29",
            "Fin": "2019-06-03"
        },
        {
            "id": 264,
            "Description": "Pont de l’Ascension",
            "DateDebut": "mercredi 29 mai 2019",
            "DateFin": "lundi 3 juin 2019",
            "Zone": "Corse",
            "annee_scolaire": "2018-2019",
            "Debut": "2019-05-29",
            "Fin": "2019-06-03"
        },
        {
            "id": 265,
            "Description": "Vacances 2ème période",
            "DateDebut": "samedi 8 juin 2019",
            "DateFin": "dimanche 23 juin 2019",
            "Zone": "Nouvelle Calédonie",
            "annee_scolaire": "2018-2019",
            "Debut": "2019-06-08",
            "Fin": "2019-06-23"
        },
        {
            "id": 266,
            "Description": "Vacances d'Été",
            "DateDebut": "mercredi 3 juillet 2019",
            "DateFin": "Date non fixée à ce jour",
            "Zone": "Saint Pierre et Miquelon",
            "annee_scolaire": "2018-2019",
            "Debut": "2019-07-03"
        },
        {
            "id": 267,
            "Description": "Grandes Vacances (Écoles)",
            "DateDebut": "samedi 6 juillet 2019",
            "DateFin": "mercredi 14 août 2019",
            "Zone": "Polynésie",
            "annee_scolaire": "2018-2019",
            "Debut": "2019-07-06",
            "Fin": "2019-08-14"
        },
        {
            "id": 268,
            "Description": "Grandes Vacances ( Collèges, lycées)",
            "DateDebut": "samedi 6 juillet 2019",
            "DateFin": "mardi 13 août 2019",
            "Zone": "Polynésie",
            "annee_scolaire": "2018-2019",
            "Debut": "2019-07-06",
            "Fin": "2019-08-13"
        },
        {
            "id": 269,
            "Description": "Vacances d'Été",
            "DateDebut": "samedi 6 juillet 2019",
            "DateFin": "lundi 2 septembre 2019",
            "Zone": "Zone B",
            "annee_scolaire": "2018-2019",
            "Debut": "2019-07-06",
            "Fin": "2019-09-02"
        },
        {
            "id": 270,
            "Description": "Vacances d'Été",
            "DateDebut": "samedi 6 juillet 2019",
            "DateFin": "lundi 2 septembre 2019",
            "Zone": "Zone A",
            "annee_scolaire": "2018-2019",
            "Debut": "2019-07-06",
            "Fin": "2019-09-02"
        },
        {
            "id": 271,
            "Description": "Grandes Vacances",
            "DateDebut": "samedi 6 juillet 2019",
            "DateFin": "Date non fixée à ce jour",
            "Zone": "Martinique",
            "annee_scolaire": "2018-2019",
            "Debut": "2019-07-06"
        },
        {
            "id": 272,
            "Description": "Vacances d'Été",
            "DateDebut": "samedi 6 juillet 2019",
            "DateFin": "lundi 2 septembre 2019",
            "Zone": "Zone C",
            "annee_scolaire": "2018-2019",
            "Debut": "2019-07-06",
            "Fin": "2019-09-02"
        },
        {
            "id": 273,
            "Description": "Vacances d'Hiver austral",
            "DateDebut": "samedi 6 juillet 2019",
            "DateFin": "vendredi 16 août 2019",
            "Zone": "La Réunion",
            "annee_scolaire": "2018-2019",
            "Debut": "2019-07-06",
            "Fin": "2019-08-16"
        },
        {
            "id": 274,
            "Description": "Vacances d'Été",
            "DateDebut": "samedi 6 juillet 2019",
            "DateFin": "mercredi 21 août 2019",
            "Zone": "Mayotte",
            "annee_scolaire": "2018-2019",
            "Debut": "2019-07-06",
            "Fin": "2019-08-21"
        },
        {
            "id": 275,
            "Description": "Vacances d'Été",
            "DateDebut": "samedi 6 juillet 2019",
            "DateFin": "Date non fixée à ce jour",
            "Zone": "Guadeloupe",
            "annee_scolaire": "2018-2019",
            "Debut": "2019-07-06"
        },
        {
            "id": 276,
            "Description": "Vacances d'Été",
            "DateDebut": "lundi 8 juillet 2019",
            "DateFin": "lundi 2 septembre 2019",
            "Zone": "Guyane",
            "annee_scolaire": "2018-2019",
            "Debut": "2019-07-08",
            "Fin": "2019-09-02"
        },
        {
            "id": 277,
            "Description": "Vacances d’Été",
            "DateDebut": "lundi 8 juillet 2019",
            "DateFin": "Date non fixée à ce jour",
            "Zone": "Corse",
            "annee_scolaire": "2018-2019",
            "Debut": "2019-07-08"
        },
        {
            "id": 278,
            "Description": "Vacances de Septembre",
            "DateDebut": "samedi 14 septembre 2019",
            "DateFin": "lundi 23 septembre 2019",
            "Zone": "Polynésie",
            "annee_scolaire": "2019-2020",
            "Debut": "2019-09-14",
            "Fin": "2019-09-23"
        },
        {
            "id": 279,
            "Description": "Vacances 4ème période",
            "DateDebut": "samedi 12 octobre 2019",
            "DateFin": "dimanche 27 octobre 2019",
            "Zone": "Nouvelle Calédonie",
            "annee_scolaire": "2019-2020",
            "Debut": "2019-10-12",
            "Fin": "2019-10-27"
        },
        {
            "id": 280,
            "Description": "Vacances après 1ère période",
            "DateDebut": "samedi 12 octobre 2019",
            "DateFin": "lundi 28 octobre 2019",
            "Zone": "La Réunion",
            "annee_scolaire": "2019-2020",
            "Debut": "2019-10-12",
            "Fin": "2019-10-28"
        },
        {
            "id": 281,
            "Description": "Vacances de la Toussaint",
            "DateDebut": "samedi 19 octobre 2019",
            "DateFin": "lundi 4 novembre 2019",
            "Zone": "Zone B",
            "annee_scolaire": "2019-2020",
            "Debut": "2019-10-19",
            "Fin": "2019-11-04"
        },
        {
            "id": 282,
            "Description": "Vacances de la Toussaint",
            "DateDebut": "samedi 19 octobre 2019",
            "DateFin": "lundi 4 novembre 2019",
            "Zone": "Zone A",
            "annee_scolaire": "2019-2020",
            "Debut": "2019-10-19",
            "Fin": "2019-11-04"
        },
        {
            "id": 283,
            "Description": "Vacances de la Toussaint",
            "DateDebut": "samedi 19 octobre 2019",
            "DateFin": "lundi 4 novembre 2019",
            "Zone": "Zone C",
            "annee_scolaire": "2019-2020",
            "Debut": "2019-10-19",
            "Fin": "2019-11-04"
        },
        {
            "id": 284,
            "Description": "Vacances de la Toussaint",
            "DateDebut": "samedi 19 octobre 2019",
            "DateFin": "lundi 4 novembre 2019",
            "Zone": "Guyane",
            "annee_scolaire": "2019-2020",
            "Debut": "2019-10-19",
            "Fin": "2019-11-04"
        },
        {
            "id": 285,
            "Description": "Vacances de Novembre",
            "DateDebut": "samedi 26 octobre 2019",
            "DateFin": "mardi 12 novembre 2019",
            "Zone": "Polynésie",
            "annee_scolaire": "2019-2020",
            "Debut": "2019-10-26",
            "Fin": "2019-11-12"
        },
        {
            "id": 286,
            "Description": "Vacances d'Été",
            "DateDebut": "samedi 14 décembre 2019",
            "DateFin": "lundi 17 février 2020",
            "Zone": "Nouvelle Calédonie",
            "annee_scolaire": "2019-2020",
            "Debut": "2019-12-14",
            "Fin": "2020-02-17"
        },
        {
            "id": 287,
            "Description": "Vacances de Noël",
            "DateDebut": "samedi 14 décembre 2019",
            "DateFin": "lundi 13 janvier 2020",
            "Zone": "Polynésie",
            "annee_scolaire": "2019-2020",
            "Debut": "2019-12-14",
            "Fin": "2020-01-13"
        },
        {
            "id": 288,
            "Description": "Vacances d'Été austral",
            "DateDebut": "jeudi 19 décembre 2019",
            "DateFin": "lundi 27 janvier 2020",
            "Zone": "La Réunion",
            "annee_scolaire": "2019-2020",
            "Debut": "2019-12-19",
            "Fin": "2020-01-27"
        },
        {
            "id": 289,
            "Description": "Vacances de Noël",
            "DateDebut": "samedi 21 décembre 2019",
            "DateFin": "lundi 6 janvier 2020",
            "Zone": "Zone B",
            "annee_scolaire": "2019-2020",
            "Debut": "2019-12-21",
            "Fin": "2020-01-06"
        },
        {
            "id": 290,
            "Description": "Vacances de Noël",
            "DateDebut": "samedi 21 décembre 2019",
            "DateFin": "lundi 6 janvier 2020",
            "Zone": "Zone C",
            "annee_scolaire": "2019-2020",
            "Debut": "2019-12-21",
            "Fin": "2020-01-06"
        },
        {
            "id": 291,
            "Description": "Vacances de Noël",
            "DateDebut": "samedi 21 décembre 2019",
            "DateFin": "lundi 6 janvier 2020",
            "Zone": "Zone A",
            "annee_scolaire": "2019-2020",
            "Debut": "2019-12-21",
            "Fin": "2020-01-06"
        },
        {
            "id": 292,
            "Description": "Vacances de Noël",
            "DateDebut": "samedi 21 décembre 2019",
            "DateFin": "lundi 6 janvier 2020",
            "Zone": "Guyane",
            "annee_scolaire": "2019-2020",
            "Debut": "2019-12-21",
            "Fin": "2020-01-06"
        },
        {
            "id": 293,
            "Description": "Vacances d'Hiver",
            "DateDebut": "samedi 8 février 2020",
            "DateFin": "lundi 24 février 2020",
            "Zone": "Zone C",
            "annee_scolaire": "2019-2020",
            "Debut": "2020-02-08",
            "Fin": "2020-02-24"
        },
        {
            "id": 294,
            "Description": "Vacances de Février",
            "DateDebut": "samedi 15 février 2020",
            "DateFin": "lundi 24 février 2020",
            "Zone": "Polynésie",
            "annee_scolaire": "2019-2020",
            "Debut": "2020-02-15",
            "Fin": "2020-02-24"
        },
        {
            "id": 295,
            "Description": "Vacances d'Hiver",
            "DateDebut": "samedi 15 février 2020",
            "DateFin": "lundi 2 mars 2020",
            "Zone": "Zone B",
            "annee_scolaire": "2019-2020",
            "Debut": "2020-02-15",
            "Fin": "2020-03-02"
        },
        {
            "id": 296,
            "Description": "Vacances de Carnaval",
            "DateDebut": "mercredi 19 février 2020",
            "DateFin": "lundi 2 mars 2020",
            "Zone": "Guyane",
            "annee_scolaire": "2019-2020",
            "Debut": "2020-02-19",
            "Fin": "2020-03-02"
        },
        {
            "id": 297,
            "Description": "Vacances d'Hiver",
            "DateDebut": "samedi 22 février 2020",
            "DateFin": "lundi 9 mars 2020",
            "Zone": "Zone A",
            "annee_scolaire": "2019-2020",
            "Debut": "2020-02-22",
            "Fin": "2020-03-09"
        },
        {
            "id": 298,
            "Description": "Vacances après 2ème période",
            "DateDebut": "samedi 7 mars 2020",
            "DateFin": "lundi 23 mars 2020",
            "Zone": "La Réunion",
            "annee_scolaire": "2019-2020",
            "Debut": "2020-03-07",
            "Fin": "2020-03-23"
        },
        {
            "id": 299,
            "Description": "Vacances de Pâques",
            "DateDebut": "samedi 28 mars 2020",
            "DateFin": "mardi 14 avril 2020",
            "Zone": "Polynésie",
            "annee_scolaire": "2019-2020",
            "Debut": "2020-03-28",
            "Fin": "2020-04-14"
        },
        {
            "id": 300,
            "Description": "Vacances 1ère période",
            "DateDebut": "samedi 4 avril 2020",
            "DateFin": "lundi 13 avril 2020",
            "Zone": "Nouvelle Calédonie",
            "annee_scolaire": "2019-2020",
            "Debut": "2020-04-04",
            "Fin": "2020-04-13"
        },
        {
            "id": 301,
            "Description": "Vacances de Printemps",
            "DateDebut": "samedi 4 avril 2020",
            "DateFin": "lundi 20 avril 2020",
            "Zone": "Zone C",
            "annee_scolaire": "2019-2020",
            "Debut": "2020-04-04",
            "Fin": "2020-04-20"
        },
        {
            "id": 302,
            "Description": "Vacances de Pâques",
            "DateDebut": "mercredi 8 avril 2020",
            "DateFin": "lundi 20 avril 2020",
            "Zone": "Guyane",
            "annee_scolaire": "2019-2020",
            "Debut": "2020-04-08",
            "Fin": "2020-04-20"
        },
        {
            "id": 303,
            "Description": "Vacances de Printemps",
            "DateDebut": "samedi 11 avril 2020",
            "DateFin": "lundi 27 avril 2020",
            "Zone": "Zone B",
            "annee_scolaire": "2019-2020",
            "Debut": "2020-04-11",
            "Fin": "2020-04-27"
        },
        {
            "id": 304,
            "Description": "Vacances de Printemps",
            "DateDebut": "samedi 18 avril 2020",
            "DateFin": "lundi 4 mai 2020",
            "Zone": "Zone A",
            "annee_scolaire": "2019-2020",
            "Debut": "2020-04-18",
            "Fin": "2020-05-04"
        },
        {
            "id": 305,
            "Description": "Vacances après 4ème période",
            "DateDebut": "jeudi 30 avril 2020",
            "DateFin": "jeudi 14 mai 2020",
            "Zone": "La Réunion",
            "annee_scolaire": "2019-2020",
            "Debut": "2020-04-30",
            "Fin": "2020-05-14"
        },
        {
            "id": 306,
            "Description": "Vacances de Mai",
            "DateDebut": "samedi 16 mai 2020",
            "DateFin": "lundi 25 mai 2020",
            "Zone": "Polynésie",
            "annee_scolaire": "2019-2020",
            "Debut": "2020-05-16",
            "Fin": "2020-05-25"
        },
        {
            "id": 307,
            "Description": "Vacances 2ème période",
            "DateDebut": "samedi 6 juin 2020",
            "DateFin": "dimanche 21 juin 2020",
            "Zone": "Nouvelle Calédonie",
            "annee_scolaire": "2019-2020",
            "Debut": "2020-06-06",
            "Fin": "2020-06-21"
        },
        {
            "id": 308,
            "Description": "Grandes Vacances",
            "DateDebut": "jeudi 2 juillet 2020",
            "DateFin": "Date non fixée à ce jour",
            "Zone": "Polynésie",
            "annee_scolaire": "2019-2020",
            "Debut": "2020-07-02"
        },
        {
            "id": 309,
            "Description": "Grandes Vacances",
            "DateDebut": "vendredi 3 juillet 2020",
            "DateFin": "Date non fixée à ce jour",
            "Zone": "Polynésie",
            "annee_scolaire": "2019-2020",
            "Debut": "2020-07-03"
        },
        {
            "id": 310,
            "Description": "Grandes Vacances",
            "DateDebut": "samedi 4 juillet 2020",
            "DateFin": "Date non fixée à ce jour",
            "Zone": "Polynésie",
            "annee_scolaire": "2019-2020",
            "Debut": "2020-07-04"
        },
        {
            "id": 311,
            "Description": "Vacances d'Hiver austral",
            "DateDebut": "samedi 4 juillet 2020",
            "DateFin": "Date non fixée à ce jour",
            "Zone": "La Réunion",
            "annee_scolaire": "2019-2020",
            "Debut": "2020-07-04"
        },
        {
            "id": 312,
            "Description": "Vacances d'Été",
            "DateDebut": "samedi 4 juillet 2020",
            "DateFin": "Date non fixée à ce jour",
            "Zone": "Zone A",
            "annee_scolaire": "2019-2020",
            "Debut": "2020-07-04"
        },
        {
            "id": 313,
            "Description": "Vacances d'Été",
            "DateDebut": "samedi 4 juillet 2020",
            "DateFin": "Date non fixée à ce jour",
            "Zone": "Zone B",
            "annee_scolaire": "2019-2020",
            "Debut": "2020-07-04"
        },
        {
            "id": 314,
            "Description": "Vacances d'Été",
            "DateDebut": "samedi 4 juillet 2020",
            "DateFin": "Date non fixée à ce jour",
            "Zone": "Zone C",
            "annee_scolaire": "2019-2020",
            "Debut": "2020-07-04"
        },
        {
            "id": 315,
            "Description": "Vacances d'Été",
            "DateDebut": "samedi 4 juillet 2020",
            "DateFin": "mardi 1 septembre 2020",
            "Zone": "Guyane",
            "annee_scolaire": "2019-2020",
            "Debut": "2020-07-04",
            "Fin": "2020-09-01"
        },
        {
            "id": 316,
            "Description": "Vacances 3ème période",
            "DateDebut": "samedi 8 août 2020",
            "DateFin": "dimanche 23 août 2020",
            "Zone": "Nouvelle Calédonie",
            "annee_scolaire": "2019-2020",
            "Debut": "2020-08-08",
            "Fin": "2020-08-23"
        },
        {
            "id": 317,
            "Description": "Vacances 4ème période",
            "DateDebut": "samedi 10 octobre 2020",
            "DateFin": "dimanche 25 octobre 2020",
            "Zone": "Nouvelle Calédonie",
            "annee_scolaire": "2020-2021",
            "Debut": "2020-10-10",
            "Fin": "2020-10-25"
        },
        {
            "id": 318,
            "Description": "Vacances d'Été",
            "DateDebut": "samedi 12 décembre 2020",
            "DateFin": "Date non fixée à ce jour",
            "Zone": "Nouvelle Calédonie",
            "annee_scolaire": "2020-2021",
            "Debut": "2020-12-12"
        },
        {
            "id": 319,
            "DateDebut": "Dates non fixées à ce jour",
            "Zone": "Martinique",
            "annee_scolaire": "2019-2020"
        },
        {
            "id": 320,
            "DateDebut": "Dates non fixées à ce jour",
            "Zone": "Corse",
            "annee_scolaire": "2019-2020"
        },
        {
            "id": 321,
            "DateDebut": "Dates non fixées à ce jour",
            "Zone": "Mayotte",
            "annee_scolaire": "2019-2020"
        },
        {
            "id": 322,
            "DateDebut": "Dates non fixées à ce jour",
            "Zone": "Wallis et Futuna",
            "annee_scolaire": "2019-2020"
        }
    ],
    "Academie": [
        {
            "id": 217,
            "Code_Dpt": "01",
            "Dpt": "01 - Ain",
            "Region": "Auvergne-Rhône-Alpes",
            "Academie": "de Lyon",
            "Zone": "Zone A",
            "NomAcademie": "Lyon",
            "Departement": "Ain"
        },
        {
            "id": 218,
            "Code_Dpt": "02",
            "Dpt": "02 - Aisne",
            "Region": "Hauts-de-France",
            "Academie": "d’Amiens",
            "Zone": "Zone B",
            "NomAcademie": "Amiens",
            "Departement": "Aisne"
        },
        {
            "id": 219,
            "Code_Dpt": "03",
            "Dpt": "03 - Allier",
            "Region": "Auvergne-Rhône-Alpes",
            "Academie": "de Clermont-Ferrand",
            "Zone": "Zone A",
            "NomAcademie": "Clermont-Ferrand",
            "Departement": "Allier"
        },
        {
            "id": 220,
            "Code_Dpt": "04",
            "Dpt": "04 - Alpes-de-Haute-Provence",
            "Region": "Provence-Alpes-Côte d'Azur",
            "Academie": "d’Aix-Marseille",
            "Zone": "Zone B",
            "NomAcademie": "Aix-Marseille",
            "Departement": "Alpes-de-Haute-Provence"
        },
        {
            "id": 221,
            "Code_Dpt": "05",
            "Dpt": "05 - Hautes-Alpes",
            "Region": "Provence-Alpes-Côte d'Azur",
            "Academie": "d’Aix-Marseille",
            "Zone": "Zone B",
            "NomAcademie": "Aix-Marseille",
            "Departement": "Hautes-Alpes"
        },
        {
            "id": 222,
            "Code_Dpt": "06",
            "Dpt": "06 - Alpes-Maritimes",
            "Region": "Provence-Alpes-Côte d'Azur",
            "Academie": "de Nice",
            "Zone": "Zone B",
            "NomAcademie": "Nice",
            "Departement": "Alpes-Maritimes"
        },
        {
            "id": 223,
            "Code_Dpt": "07",
            "Dpt": "07 - Ardèche",
            "Region": "Auvergne-Rhône-Alpes",
            "Academie": "de Grenoble",
            "Zone": "Zone A",
            "NomAcademie": "Grenoble",
            "Departement": "Ardèche"
        },
        {
            "id": 224,
            "Code_Dpt": "08",
            "Dpt": "08 - Ardennes",
            "Region": "Grand Est",
            "Academie": "de Reims",
            "Zone": "Zone B",
            "NomAcademie": "Reims",
            "Departement": "Ardennes"
        },
        {
            "id": 225,
            "Code_Dpt": "09",
            "Dpt": "09 - Ariège",
            "Region": "Occitanie",
            "Academie": "de Toulouse",
            "Zone": "Zone C",
            "NomAcademie": "Toulouse",
            "Departement": "Ariège"
        },
        {
            "id": 226,
            "Code_Dpt": "10",
            "Dpt": "10 - Aube",
            "Region": "Grand Est",
            "Academie": "de Reims",
            "Zone": "Zone B",
            "NomAcademie": "Reims",
            "Departement": "Aube"
        },
        {
            "id": 227,
            "Code_Dpt": "11",
            "Dpt": "11 - Aude",
            "Region": "Occitanie",
            "Academie": "de Montpellier",
            "Zone": "Zone C",
            "NomAcademie": "Montpellier",
            "Departement": "Aude"
        },
        {
            "id": 228,
            "Code_Dpt": "12",
            "Dpt": "12 - Aveyron",
            "Region": "Occitanie",
            "Academie": "de Toulouse",
            "Zone": "Zone C",
            "NomAcademie": "Toulouse",
            "Departement": "Aveyron"
        },
        {
            "id": 229,
            "Code_Dpt": "13",
            "Dpt": "13 - Bouches-du-Rhône",
            "Region": "Provence-Alpes-Côte d'Azur",
            "Academie": "d’Aix-Marseille",
            "Zone": "Zone B",
            "NomAcademie": "Aix-Marseille",
            "Departement": "Bouches-du-Rhône"
        },
        {
            "id": 230,
            "Code_Dpt": "14",
            "Dpt": "14 - Calvados",
            "Region": "Normandie",
            "Academie": "de Caen",
            "Zone": "Zone B",
            "NomAcademie": "Caen",
            "Departement": "Calvados"
        },
        {
            "id": 231,
            "Code_Dpt": "15",
            "Dpt": "15 - Cantal",
            "Region": "Auvergne-Rhône-Alpes",
            "Academie": "de Clermont-Ferrand",
            "Zone": "Zone A",
            "NomAcademie": "Clermont-Ferrand",
            "Departement": "Cantal"
        },
        {
            "id": 232,
            "Code_Dpt": "16",
            "Dpt": "16 - Charente",
            "Region": "Nouvelle-Aquitaine",
            "Academie": "de Poitiers",
            "Zone": "Zone A",
            "NomAcademie": "Poitiers",
            "Departement": "Charente"
        },
        {
            "id": 233,
            "Code_Dpt": "17",
            "Dpt": "17 - Charente-Maritime",
            "Region": "Nouvelle-Aquitaine",
            "Academie": "de Poitiers",
            "Zone": "Zone A",
            "NomAcademie": "Poitiers",
            "Departement": "Charente-Maritime"
        },
        {
            "id": 234,
            "Code_Dpt": "18",
            "Dpt": "18 - Cher",
            "Region": "Centre-Val de Loire",
            "Academie": "d'Orléans-Tours",
            "Zone": "Zone B",
            "NomAcademie": "Orléans-Tours",
            "Departement": "Cher"
        },
        {
            "id": 235,
            "Code_Dpt": "19",
            "Dpt": "19 - Corrèze",
            "Region": "Nouvelle-Aquitaine",
            "Academie": "de Limoges",
            "Zone": "Zone A",
            "NomAcademie": "Limoges",
            "Departement": "Corrèze"
        },
        {
            "id": 236,
            "Code_Dpt": "21",
            "Dpt": "21 - Côte-d'Or",
            "Region": "Bourgogne-Franche-Comté",
            "Academie": "de Dijon",
            "Zone": "Zone A",
            "NomAcademie": "Dijon",
            "Departement": "Côte-d'Or"
        },
        {
            "id": 237,
            "Code_Dpt": "22",
            "Dpt": "22 - Côtes-d'Armor",
            "Region": "Bretagne",
            "Academie": "de Rennes",
            "Zone": "Zone B",
            "NomAcademie": "Rennes",
            "Departement": "Côtes-d'Armor"
        },
        {
            "id": 238,
            "Code_Dpt": "23",
            "Dpt": "23 - Creuse",
            "Region": "Nouvelle-Aquitaine",
            "Academie": "de Limoges",
            "Zone": "Zone A",
            "NomAcademie": "Limoges",
            "Departement": "Creuse"
        },
        {
            "id": 239,
            "Code_Dpt": "24",
            "Dpt": "24 - Dordogne",
            "Region": "Nouvelle-Aquitaine",
            "Academie": "de Bordeaux",
            "Zone": "Zone A",
            "NomAcademie": "Bordeaux",
            "Departement": "Dordogne"
        },
        {
            "id": 240,
            "Code_Dpt": "25",
            "Dpt": "25 - Doubs",
            "Region": "Bourgogne-Franche-Comté",
            "Academie": "de Besançon",
            "Zone": "Zone A",
            "NomAcademie": "Besançon",
            "Departement": "Doubs"
        },
        {
            "id": 241,
            "Code_Dpt": "26",
            "Dpt": "26 - Drôme",
            "Region": "Auvergne-Rhône-Alpes",
            "Academie": "de Grenoble",
            "Zone": "Zone A",
            "NomAcademie": "Grenoble",
            "Departement": "Drôme"
        },
        {
            "id": 242,
            "Code_Dpt": "27",
            "Dpt": "27 - Eure",
            "Region": "Normandie",
            "Academie": "de Rouen",
            "Zone": "Zone B",
            "NomAcademie": "Rouen",
            "Departement": "Eure"
        },
        {
            "id": 243,
            "Code_Dpt": "28",
            "Dpt": "28 - Eure-et-Loir",
            "Region": "Centre-Val de Loire",
            "Academie": "d'Orléans-Tours",
            "Zone": "Zone B",
            "NomAcademie": "Orléans-Tours",
            "Departement": "Eure-et-Loir"
        },
        {
            "id": 244,
            "Code_Dpt": "29",
            "Dpt": "29 - Finistère",
            "Region": "Bretagne",
            "Academie": "de Rennes",
            "Zone": "Zone B",
            "NomAcademie": "Rennes",
            "Departement": "Finistère"
        },
        {
            "id": 245,
            "Code_Dpt": "30",
            "Dpt": "30 - Gard",
            "Region": "Occitanie",
            "Academie": "de Montpellier",
            "Zone": "Zone C",
            "NomAcademie": "Montpellier",
            "Departement": "Gard"
        },
        {
            "id": 246,
            "Code_Dpt": "31",
            "Dpt": "31 - Haute-Garonne",
            "Region": "Occitanie",
            "Academie": "de Toulouse",
            "Zone": "Zone C",
            "NomAcademie": "Toulouse",
            "Departement": "Haute-Garonne"
        },
        {
            "id": 247,
            "Code_Dpt": "32",
            "Dpt": "32 - Gers",
            "Region": "Occitanie",
            "Academie": "de Toulouse",
            "Zone": "Zone C",
            "NomAcademie": "Toulouse",
            "Departement": "Gers"
        },
        {
            "id": 248,
            "Code_Dpt": "33",
            "Dpt": "33 - Gironde",
            "Region": "Nouvelle-Aquitaine",
            "Academie": "de Bordeaux",
            "Zone": "Zone A",
            "NomAcademie": "Bordeaux",
            "Departement": "Gironde"
        },
        {
            "id": 249,
            "Code_Dpt": "34",
            "Dpt": "34 - Hérault",
            "Region": "Occitanie",
            "Academie": "de Montpellier",
            "Zone": "Zone C",
            "NomAcademie": "Montpellier",
            "Departement": "Hérault"
        },
        {
            "id": 250,
            "Code_Dpt": "35",
            "Dpt": "35 - Ille-et-Vilaine",
            "Region": "Bretagne",
            "Academie": "de Rennes",
            "Zone": "Zone B",
            "NomAcademie": "Rennes",
            "Departement": "Ille-et-Vilaine"
        },
        {
            "id": 251,
            "Code_Dpt": "36",
            "Dpt": "36 - Indre",
            "Region": "Centre-Val de Loire",
            "Academie": "d'Orléans-Tours",
            "Zone": "Zone B",
            "NomAcademie": "Orléans-Tours",
            "Departement": "Indre"
        },
        {
            "id": 252,
            "Code_Dpt": "37",
            "Dpt": "37 - Indre-et-Loire",
            "Region": "Centre-Val de Loire",
            "Academie": "d'Orléans-Tours",
            "Zone": "Zone B",
            "NomAcademie": "Orléans-Tours",
            "Departement": "Indre-et-Loire"
        },
        {
            "id": 253,
            "Code_Dpt": "38",
            "Dpt": "38 - Isère",
            "Region": "Auvergne-Rhône-Alpes",
            "Academie": "de Grenoble",
            "Zone": "Zone A",
            "NomAcademie": "Grenoble",
            "Departement": "Isère"
        },
        {
            "id": 254,
            "Code_Dpt": "39",
            "Dpt": "39 - Jura",
            "Region": "Bourgogne-Franche-Comté",
            "Academie": "de Besançon",
            "Zone": "Zone A",
            "NomAcademie": "Besançon",
            "Departement": "Jura"
        },
        {
            "id": 255,
            "Code_Dpt": "40",
            "Dpt": "40 - Landes",
            "Region": "Nouvelle-Aquitaine",
            "Academie": "de Bordeaux",
            "Zone": "Zone A",
            "NomAcademie": "Bordeaux",
            "Departement": "Landes"
        },
        {
            "id": 256,
            "Code_Dpt": "41",
            "Dpt": "41 - Loir-et-Cher",
            "Region": "Centre-Val de Loire",
            "Academie": "d'Orléans-Tours",
            "Zone": "Zone B",
            "NomAcademie": "Orléans-Tours",
            "Departement": "Loir-et-Cher"
        },
        {
            "id": 257,
            "Code_Dpt": "42",
            "Dpt": "42 - Loire",
            "Region": "Auvergne-Rhône-Alpes",
            "Academie": "de Lyon",
            "Zone": "Zone A",
            "NomAcademie": "Lyon",
            "Departement": "Loire"
        },
        {
            "id": 258,
            "Code_Dpt": "43",
            "Dpt": "43 - Haute-Loire",
            "Region": "Auvergne-Rhône-Alpes",
            "Academie": "de Clermont-Ferrand",
            "Zone": "Zone A",
            "NomAcademie": "Clermont-Ferrand",
            "Departement": "Haute-Loire"
        },
        {
            "id": 259,
            "Code_Dpt": "44",
            "Dpt": "44 - Loire-Atlantique",
            "Region": "Pays de la Loire",
            "Academie": "de Nantes",
            "Zone": "Zone B",
            "NomAcademie": "Nantes",
            "Departement": "Loire-Atlantique"
        },
        {
            "id": 260,
            "Code_Dpt": "45",
            "Dpt": "45 - Loiret",
            "Region": "Centre-Val de Loire",
            "Academie": "d'Orléans-Tours",
            "Zone": "Zone B",
            "NomAcademie": "Orléans-Tours",
            "Departement": "Loiret"
        },
        {
            "id": 261,
            "Code_Dpt": "46",
            "Dpt": "46 - Lot",
            "Region": "Occitanie",
            "Academie": "de Toulouse",
            "Zone": "Zone C",
            "NomAcademie": "Toulouse",
            "Departement": "Lot"
        },
        {
            "id": 262,
            "Code_Dpt": "47",
            "Dpt": "47 - Lot-et-Garonne",
            "Region": "Nouvelle-Aquitaine",
            "Academie": "de Bordeaux",
            "Zone": "Zone A",
            "NomAcademie": "Bordeaux",
            "Departement": "Lot-et-Garonne"
        },
        {
            "id": 263,
            "Code_Dpt": "48",
            "Dpt": "48 - Lozère",
            "Region": "Occitanie",
            "Academie": "de Montpellier",
            "Zone": "Zone C",
            "NomAcademie": "Montpellier",
            "Departement": "Lozère"
        },
        {
            "id": 264,
            "Code_Dpt": "49",
            "Dpt": "49 - Maine-et-Loire",
            "Region": "Pays de la Loire",
            "Academie": "de Nantes",
            "Zone": "Zone B",
            "NomAcademie": "Nantes",
            "Departement": "Maine-et-Loire"
        },
        {
            "id": 265,
            "Code_Dpt": "50",
            "Dpt": "50 - Manche",
            "Region": "Normandie",
            "Academie": "de Caen",
            "Zone": "Zone B",
            "NomAcademie": "Caen",
            "Departement": "Manche"
        },
        {
            "id": 266,
            "Code_Dpt": "51",
            "Dpt": "51 - Marne",
            "Region": "Grand Est",
            "Academie": "de Reims",
            "Zone": "Zone B",
            "NomAcademie": "Reims",
            "Departement": "Marne"
        },
        {
            "id": 267,
            "Code_Dpt": "52",
            "Dpt": "52 - Haute-Marne",
            "Region": "Grand Est",
            "Academie": "de Reims",
            "Zone": "Zone B",
            "NomAcademie": "Reims",
            "Departement": "Haute-Marne"
        },
        {
            "id": 268,
            "Code_Dpt": "53",
            "Dpt": "53 - Mayenne",
            "Region": "Pays de la Loire",
            "Academie": "de Nantes",
            "Zone": "Zone B",
            "NomAcademie": "Nantes",
            "Departement": "Mayenne"
        },
        {
            "id": 269,
            "Code_Dpt": "54",
            "Dpt": "54 - Meurthe-et-Moselle",
            "Region": "Grand Est",
            "Academie": "de Nancy-Metz",
            "Zone": "Zone B",
            "NomAcademie": "Nancy-Metz",
            "Departement": "Meurthe-et-Moselle"
        },
        {
            "id": 270,
            "Code_Dpt": "55",
            "Dpt": "55 - Meuse",
            "Region": "Grand Est",
            "Academie": "de Nancy-Metz",
            "Zone": "Zone B",
            "NomAcademie": "Nancy-Metz",
            "Departement": "Meuse"
        },
        {
            "id": 271,
            "Code_Dpt": "56",
            "Dpt": "56 - Morbihan",
            "Region": "Bretagne",
            "Academie": "de Rennes",
            "Zone": "Zone B",
            "NomAcademie": "Rennes",
            "Departement": "Morbihan"
        },
        {
            "id": 272,
            "Code_Dpt": "57",
            "Dpt": "57 - Moselle",
            "Region": "Grand Est",
            "Academie": "de Nancy-Metz",
            "Zone": "Zone B",
            "NomAcademie": "Nancy-Metz",
            "Departement": "Moselle"
        },
        {
            "id": 273,
            "Code_Dpt": "58",
            "Dpt": "58 - Nièvre",
            "Region": "Bourgogne-Franche-Comté",
            "Academie": "de Dijon",
            "Zone": "Zone A",
            "NomAcademie": "Dijon",
            "Departement": "Nièvre"
        },
        {
            "id": 274,
            "Code_Dpt": "59",
            "Dpt": "59 - Nord",
            "Region": "Hauts-de-France",
            "Academie": "de Lille",
            "Zone": "Zone B",
            "NomAcademie": "Lille",
            "Departement": "Nord"
        },
        {
            "id": 275,
            "Code_Dpt": "60",
            "Dpt": "60 - Oise",
            "Region": "Hauts-de-France",
            "Academie": "d’Amiens",
            "Zone": "Zone B",
            "NomAcademie": "Amiens",
            "Departement": "Oise"
        },
        {
            "id": 276,
            "Code_Dpt": "61",
            "Dpt": "61 - Orne",
            "Region": "Normandie",
            "Academie": "de Caen",
            "Zone": "Zone B",
            "NomAcademie": "Caen",
            "Departement": "Orne"
        },
        {
            "id": 277,
            "Code_Dpt": "62",
            "Dpt": "62 - Pas-de-Calais",
            "Region": "Hauts-de-France",
            "Academie": "de Lille",
            "Zone": "Zone B",
            "NomAcademie": "Lille",
            "Departement": "Pas-de-Calais"
        },
        {
            "id": 278,
            "Code_Dpt": "63",
            "Dpt": "63 - Puy-de-Dôme",
            "Region": "Auvergne-Rhône-Alpes",
            "Academie": "de Clermont-Ferrand",
            "Zone": "Zone A",
            "NomAcademie": "Clermont-Ferrand",
            "Departement": "Puy-de-Dôme"
        },
        {
            "id": 279,
            "Code_Dpt": "64",
            "Dpt": "64 - Pyrénées-Atlantiques",
            "Region": "Nouvelle-Aquitaine",
            "Academie": "de Bordeaux",
            "Zone": "Zone A",
            "NomAcademie": "Bordeaux",
            "Departement": "Pyrénées-Atlantiques"
        },
        {
            "id": 280,
            "Code_Dpt": "65",
            "Dpt": "65 - Hautes-Pyrénées",
            "Region": "Occitanie",
            "Academie": "de Toulouse",
            "Zone": "Zone C",
            "NomAcademie": "Toulouse",
            "Departement": "Hautes-Pyrénées"
        },
        {
            "id": 281,
            "Code_Dpt": "66",
            "Dpt": "66 - Pyrénées-Orientales",
            "Region": "Occitanie",
            "Academie": "de Montpellier",
            "Zone": "Zone C",
            "NomAcademie": "Montpellier",
            "Departement": "Pyrénées-Orientales"
        },
        {
            "id": 282,
            "Code_Dpt": "67",
            "Dpt": "67 - Bas-Rhin",
            "Region": "Grand Est",
            "Academie": "de Strasbourg",
            "Zone": "Zone B",
            "NomAcademie": "Strasbourg",
            "Departement": "Bas-Rhin"
        },
        {
            "id": 283,
            "Code_Dpt": "68",
            "Dpt": "68 - Haut-Rhin",
            "Region": "Grand Est",
            "Academie": "de Strasbourg",
            "Zone": "Zone B",
            "NomAcademie": "Strasbourg",
            "Departement": "Haut-Rhin"
        },
        {
            "id": 284,
            "Code_Dpt": "69",
            "Dpt": "69 - Rhône",
            "Region": "Auvergne-Rhône-Alpes",
            "Academie": "de Lyon",
            "Zone": "Zone A",
            "NomAcademie": "Lyon",
            "Departement": "Rhône"
        },
        {
            "id": 285,
            "Code_Dpt": "70",
            "Dpt": "70 - Haute-Saône",
            "Region": "Bourgogne-Franche-Comté",
            "Academie": "de Besançon",
            "Zone": "Zone A",
            "NomAcademie": "Besançon",
            "Departement": "Haute-Saône"
        },
        {
            "id": 286,
            "Code_Dpt": "71",
            "Dpt": "71 - Saône-et-Loire",
            "Region": "Bourgogne-Franche-Comté",
            "Academie": "de Dijon",
            "Zone": "Zone A",
            "NomAcademie": "Dijon",
            "Departement": "Saône-et-Loire"
        },
        {
            "id": 287,
            "Code_Dpt": "72",
            "Dpt": "72 - Sarthe",
            "Region": "Pays de la Loire",
            "Academie": "de Nantes",
            "Zone": "Zone B",
            "NomAcademie": "Nantes",
            "Departement": "Sarthe"
        },
        {
            "id": 288,
            "Code_Dpt": "73",
            "Dpt": "73 - Savoie",
            "Region": "Auvergne-Rhône-Alpes",
            "Academie": "de Grenoble",
            "Zone": "Zone A",
            "NomAcademie": "Grenoble",
            "Departement": "Savoie"
        },
        {
            "id": 289,
            "Code_Dpt": "74",
            "Dpt": "74 - Haute-Savoie",
            "Region": "Auvergne-Rhône-Alpes",
            "Academie": "de Grenoble",
            "Zone": "Zone A",
            "NomAcademie": "Grenoble",
            "Departement": "Haute-Savoie"
        },
        {
            "id": 290,
            "Code_Dpt": "75",
            "Dpt": "75 - Paris",
            "Region": "Île-de-France",
            "Academie": "de Paris",
            "Zone": "Zone C",
            "NomAcademie": "Paris",
            "Departement": "Paris"
        },
        {
            "id": 291,
            "Code_Dpt": "76",
            "Dpt": "76 - Seine-Maritime",
            "Region": "Normandie",
            "Academie": "de Rouen",
            "Zone": "Zone B",
            "NomAcademie": "Rouen",
            "Departement": "Seine-Maritime"
        },
        {
            "id": 292,
            "Code_Dpt": "77",
            "Dpt": "77 - Seine-et-Marne",
            "Region": "Île-de-France",
            "Academie": "de Créteil",
            "Zone": "Zone C",
            "NomAcademie": "Créteil",
            "Departement": "Seine-et-Marne"
        },
        {
            "id": 293,
            "Code_Dpt": "78",
            "Dpt": "78 - Yvelines",
            "Region": "Île-de-France",
            "Academie": "de Versailles",
            "Zone": "Zone C",
            "NomAcademie": "Versailles",
            "Departement": "Yvelines"
        },
        {
            "id": 294,
            "Code_Dpt": "79",
            "Dpt": "79 - Deux-Sèvres",
            "Region": "Nouvelle-Aquitaine",
            "Academie": "de Poitiers",
            "Zone": "Zone A",
            "NomAcademie": "Poitiers",
            "Departement": "Deux-Sèvres"
        },
        {
            "id": 295,
            "Code_Dpt": "80",
            "Dpt": "80 - Somme",
            "Region": "Hauts-de-France",
            "Academie": "d’Amiens",
            "Zone": "Zone B",
            "NomAcademie": "Amiens",
            "Departement": "Somme"
        },
        {
            "id": 296,
            "Code_Dpt": "81",
            "Dpt": "81 - Tarn",
            "Region": "Occitanie",
            "Academie": "de Toulouse",
            "Zone": "Zone C",
            "NomAcademie": "Toulouse",
            "Departement": "Tarn"
        },
        {
            "id": 297,
            "Code_Dpt": "82",
            "Dpt": "82 - Tarn-et-Garonne",
            "Region": "Occitanie",
            "Academie": "de Toulouse",
            "Zone": "Zone C",
            "NomAcademie": "Toulouse",
            "Departement": "Tarn-et-Garonne"
        },
        {
            "id": 298,
            "Code_Dpt": "83",
            "Dpt": "83 - Var",
            "Region": "Provence-Alpes-Côte d'Azur",
            "Academie": "de Nice",
            "Zone": "Zone B",
            "NomAcademie": "Nice",
            "Departement": "Var"
        },
        {
            "id": 299,
            "Code_Dpt": "84",
            "Dpt": "84 - Vaucluse",
            "Region": "Provence-Alpes-Côte d'Azur",
            "Academie": "d’Aix-Marseille",
            "Zone": "Zone B",
            "NomAcademie": "Aix-Marseille",
            "Departement": "Vaucluse"
        },
        {
            "id": 300,
            "Code_Dpt": "85",
            "Dpt": "85 - Vendée",
            "Region": "Pays de la Loire",
            "Academie": "de Nantes",
            "Zone": "Zone B",
            "NomAcademie": "Nantes",
            "Departement": "Vendée"
        },
        {
            "id": 301,
            "Code_Dpt": "86",
            "Dpt": "86 - Vienne",
            "Region": "Nouvelle-Aquitaine",
            "Academie": "de Poitiers",
            "Zone": "Zone A",
            "NomAcademie": "Poitiers",
            "Departement": "Vienne"
        },
        {
            "id": 302,
            "Code_Dpt": "87",
            "Dpt": "87 - Haute-Vienne",
            "Region": "Nouvelle-Aquitaine",
            "Academie": "de Limoges",
            "Zone": "Zone A",
            "NomAcademie": "Limoges",
            "Departement": "Haute-Vienne"
        },
        {
            "id": 303,
            "Code_Dpt": "88",
            "Dpt": "88 - Vosges",
            "Region": "Grand Est",
            "Academie": "de Nancy-Metz",
            "Zone": "Zone B",
            "NomAcademie": "Nancy-Metz",
            "Departement": "Vosges"
        },
        {
            "id": 304,
            "Code_Dpt": "89",
            "Dpt": "89 - Yonne",
            "Region": "Bourgogne-Franche-Comté",
            "Academie": "de Dijon",
            "Zone": "Zone A",
            "NomAcademie": "Dijon",
            "Departement": "Yonne"
        },
        {
            "id": 305,
            "Code_Dpt": "90",
            "Dpt": "90 - Territoire de Belfort",
            "Region": "Bourgogne-Franche-Comté",
            "Academie": "de Besançon",
            "Zone": "Zone A",
            "NomAcademie": "Besançon",
            "Departement": "Territoire de Belfort"
        },
        {
            "id": 306,
            "Code_Dpt": "91",
            "Dpt": "91 - Essonne",
            "Region": "Île-de-France",
            "Academie": "de Versailles",
            "Zone": "Zone C",
            "NomAcademie": "Versailles",
            "Departement": "Essonne"
        },
        {
            "id": 307,
            "Code_Dpt": "92",
            "Dpt": "92 - Hauts-de-Seine",
            "Region": "Île-de-France",
            "Academie": "de Versailles",
            "Zone": "Zone C",
            "NomAcademie": "Versailles",
            "Departement": "Hauts-de-Seine"
        },
        {
            "id": 308,
            "Code_Dpt": "93",
            "Dpt": "93 - Seine-Saint-Denis",
            "Region": "Île-de-France",
            "Academie": "de Créteil",
            "Zone": "Zone C",
            "NomAcademie": "Créteil",
            "Departement": "Seine-Saint-Denis"
        },
        {
            "id": 309,
            "Code_Dpt": "94",
            "Dpt": "94 - Val-de-Marne",
            "Region": "Île-de-France",
            "Academie": "de Créteil",
            "Zone": "Zone C",
            "NomAcademie": "Créteil",
            "Departement": "Val-de-Marne"
        },
        {
            "id": 310,
            "Code_Dpt": "95",
            "Dpt": "95 - Val-d'Oise",
            "Region": "Île-de-France",
            "Academie": "de Versailles",
            "Zone": "Zone C",
            "NomAcademie": "Versailles",
            "Departement": "Val-d'Oise"
        },
        {
            "id": 311,
            "Code_Dpt": "971",
            "Dpt": "971 - Guadeloupe",
            "Region": "Guadeloupe",
            "Academie": "de Guadeloupe",
            "Zone": "Guadeloupe",
            "NomAcademie": "Guadeloupe",
            "Departement": "Guadeloupe"
        },
        {
            "id": 312,
            "Code_Dpt": "972",
            "Dpt": "972 - Martinique",
            "Region": "Martinique",
            "Academie": "de Martinique",
            "Zone": "Martinique",
            "NomAcademie": "Martinique",
            "Departement": "Martinique"
        },
        {
            "id": 313,
            "Code_Dpt": "973",
            "Dpt": "973 - Guyane",
            "Region": "Guyane",
            "Academie": "de Guyane",
            "Zone": "Guyane",
            "NomAcademie": "Guyane",
            "Departement": "Guyane"
        },
        {
            "id": 314,
            "Code_Dpt": "974",
            "Dpt": "974 - La Réunion",
            "Region": "La Réunion",
            "Academie": "de La Réunion",
            "Zone": "La Réunion",
            "NomAcademie": "La Réunion",
            "Departement": "La Réunion"
        },
        {
            "id": 315,
            "Code_Dpt": "975",
            "Dpt": "975 - Saint-Pierre et Miquelon",
            "Region": "TOM et Collectivités territoriales",
            "Academie": "de Saint-Pierre et Miquelon",
            "Zone": "Saint-Pierre et Miquelon",
            "NomAcademie": "Saint-Pierre et Miquelon",
            "Departement": "Saint-Pierre et Miquelon"
        },
        {
            "id": 316,
            "Code_Dpt": "976",
            "Dpt": "976 - Mayotte",
            "Region": "Mayotte",
            "Academie": "de Mayotte",
            "Zone": "Mayotte",
            "NomAcademie": "Mayotte",
            "Departement": "Mayotte"
        },
        {
            "id": 317,
            "Code_Dpt": "977",
            "Dpt": "977 - Saint-Barthélémy",
            "Region": "TOM et Collectivités territoriales",
            "Academie": "de Guadeloupe",
            "Zone": "Guadeloupe",
            "NomAcademie": "Guadeloupe",
            "Departement": "Saint-Barthélémy"
        },
        {
            "id": 318,
            "Code_Dpt": "978",
            "Dpt": "978 - Saint-Martin",
            "Region": "TOM et Collectivités territoriales",
            "Academie": "de Guadeloupe",
            "Zone": "Guadeloupe",
            "NomAcademie": "Guadeloupe",
            "Departement": "Saint-Martin"
        },
        {
            "id": 319,
            "Code_Dpt": "986",
            "Dpt": "986 - Wallis et Futuna",
            "Region": "TOM et Collectivités territoriales",
            "Academie": "de Wallis et Futuna",
            "Zone": "Wallis et Futuna",
            "NomAcademie": "Wallis et Futuna",
            "Departement": "Wallis et Futuna"
        },
        {
            "id": 320,
            "Code_Dpt": "987",
            "Dpt": "987 - Polynésie Française",
            "Region": "TOM et Collectivités territoriales",
            "Academie": "de Polynésie Française",
            "Zone": "Polynésie",
            "NomAcademie": "Polynésie Française",
            "Departement": "Polynésie Française"
        },
        {
            "id": 321,
            "Code_Dpt": "988",
            "Dpt": "988 - Nouvelle Calédonie",
            "Region": "TOM et Collectivités territoriales",
            "Academie": "de Nouvelle Calédonie",
            "Zone": "Nouvelle Calédonie",
            "NomAcademie": "Nouvelle Calédonie",
            "Departement": "Nouvelle Calédonie"
        },
        {
            "id": 322,
            "Code_Dpt": "2A",
            "Dpt": "2A - Corse-du-Sud",
            "Region": "Corse",
            "Academie": "de Corse",
            "Zone": "Corse",
            "NomAcademie": "Corse",
            "Departement": "Corse-du-Sud"
        },
        {
            "id": 323,
            "Code_Dpt": "2B",
            "Dpt": "2B - Haute-Corse",
            "Region": "Corse",
            "Academie": "de Corse",
            "Zone": "Corse",
            "NomAcademie": "Corse",
            "Departement": "Haute-Corse"
        }
    ]
}