{
    "$schema": "http:\/\/json-schema.org\/draft-04\/schema#",
    "type": "object",
    "title": "Zonage_Denormandie",
    "description": "Table des villes qui peuvent permettre de bénéficier du dispositif Denormandie",
    "databaseName": "Zonage_Denormandie.db",
    "databaseLabel": "Table des villes qui peuvent permettre de bénéficier du dispositif Denormandie",
    "databaseDatasimulator": "",
    "databaseDatanextchange": "",
    "databaseDatauserchange": "",
    "properties": {
        "DenormandieArrete": {
            "type": "array",
            "title": "Arrêté Denormandie",
            "description": "",
            "items": {
                "type": "object",
                "properties": {
                    "id": {
                        "type": "integer",
                        "title": "id [primarykey:1, autoincrement:244, type:integer]",
                        "description": "Identifiant interne"
                    },
                    "VilleDenor": {
                        "type": "string",
                        "title": "Ville Denormandie [type:textarea]",
                        "description": ""
                    },
                    "CodeInseeDenor": {
                        "type": "string",
                        "title": "Code Insee Denormandie [type:text]",
                        "description": ""
                    }
                },
                "required": [
                    "id",
                    "VilleDenor",
                    "CodeInseeDenor"
                ]
            }
        },
        "ORT": {
            "type": "array",
            "title": "ORT",
            "description": "",
            "items": {
                "type": "object",
                "properties": {
                    "id": {
                        "type": "integer",
                        "title": "id [primarykey:1, autoincrement:1829, type:integer]",
                        "description": "Identifiant interne"
                    },
                    "VilleORT": {
                        "type": "string",
                        "title": "Ville ORT [type:text]",
                        "description": ""
                    },
                    "CodeInseeORT": {
                        "type": "string",
                        "title": "Code Insee ORT [type:text]",
                        "description": ""
                    }
                },
                "required": [
                    "id",
                    "VilleORT"
                ]
            }
        }
    },
    "required": [
        "DenormandieArrete",
        "ORT"
    ]
}