{
    "$schema": "http:\/\/json-schema.org\/draft-04\/schema#",
    "type": "object",
    "title": "zonageABC",
    "description": "",
    "databaseName": "zonageABC.db",
    "databaseLabel": "Liste des communes en zone A B C",
    "databaseDatasimulator": "",
    "databaseDatanextchange": "",
    "databaseDatauserchange": "admin",
    "properties": {
        "zoneABC": {
            "type": "array",
            "title": "Liste des communes en ABC",
            "description": "",
            "items": {
                "type": "object",
                "properties": {
                    "id": {
                        "type": "integer",
                        "title": "id [primarykey:1, autoincrement:37058, type:integer]",
                        "description": "Identifiant interne"
                    },
                    "Nom": {
                        "type": "string",
                        "title": "Nom de la commune [type:text]",
                        "description": ""
                    },
                    "codeInsee": {
                        "type": "string",
                        "title": "Code Insee [type:text]",
                        "description": ""
                    },
                    "zoneABC": {
                        "type": "string",
                        "title": "Zone ABC [type:text]",
                        "description": ""
                    }
                },
                "required": [
                    "id",
                    "Nom",
                    "codeInsee",
                    "zoneABC"
                ]
            }
        }
    },
    "required": [
        "zoneABC"
    ]
}