{
    "$schema": "http:\/\/json-schema.org\/draft-04\/schema#",
    "type": "object",
    "title": "Zone123",
    "description": "",
    "databaseName": "Zone123.db",
    "databaseLabel": "Zone123",
    "databaseDatasimulator": "",
    "databaseDatanextchange": "",
    "databaseDatauserchange": "admin",
    "properties": {
        "zone123": {
            "type": "array",
            "title": "zone123",
            "description": "",
            "items": {
                "type": "object",
                "properties": {
                    "id": {
                        "type": "integer",
                        "title": "id [primarykey:1, autoincrement:36681, type:integer]",
                        "description": "Identifiant interne"
                    },
                    "codeInsee": {
                        "type": "string",
                        "title": "Code Insee [type:text]",
                        "description": ""
                    },
                    "nomCommune": {
                        "type": "string",
                        "title": "Nom Commune [type:text]",
                        "description": ""
                    },
                    "zone": {
                        "type": "string",
                        "title": "Zone [type:text]",
                        "description": ""
                    }
                },
                "required": [
                    "id",
                    "codeInsee",
                    "nomCommune",
                    "zone"
                ]
            }
        }
    },
    "required": [
        "zone123"
    ]
}